<svg viewBox="0 0 80 60" fill="none" xmlns="http://www.w3.org/2000/svg">
<path d="M40 6.22725C47.743 6.22725 48.6613 6.25625 51.7208 6.39642C59.5798 6.75408 63.2507 10.483 63.6084 18.284C63.7486 21.3411 63.7752 22.2594 63.7752 30.0024C63.7752 37.7478 63.7462 38.6638 63.6084 41.7208C63.2483 49.5146 59.5871 53.2507 51.7208 53.6084C48.6613 53.7486 47.7478 53.7776 40 53.7776C32.257 53.7776 31.3387 53.7486 28.2816 53.6084C20.4033 53.2483 16.7517 49.5025 16.394 41.7184C16.2538 38.6613 16.2248 37.7454 16.2248 30C16.2248 22.257 16.2563 21.3411 16.394 18.2816C16.7541 10.483 20.4153 6.75167 28.2816 6.394C31.3411 6.25625 32.257 6.22725 40 6.22725ZM40 1C32.1241 1 31.1381 1.03383 28.0448 1.174C17.5129 1.65733 11.6598 7.50083 11.1764 18.0423C11.0338 21.1381 11 22.1241 11 30C11 37.8759 11.0338 38.8643 11.174 41.9577C11.6573 52.4895 17.5008 58.3427 28.0423 58.826C31.1381 58.9662 32.1241 59 40 59C47.8759 59 48.8643 58.9662 51.9577 58.826C62.4798 58.3427 68.3475 52.4992 68.8236 41.9577C68.9662 38.8643 69 37.8759 69 30C69 22.1241 68.9662 21.1381 68.826 18.0448C68.3523 7.52258 62.5016 1.65975 51.9601 1.17642C48.8643 1.03383 47.8759 1 40 1ZM40 15.1085C31.7761 15.1085 25.1085 21.7761 25.1085 30C25.1085 38.2239 31.7761 44.8939 40 44.8939C48.2239 44.8939 54.8915 38.2263 54.8915 30C54.8915 21.7761 48.2239 15.1085 40 15.1085ZM40 39.6667C34.6616 39.6667 30.3333 35.3408 30.3333 30C30.3333 24.6616 34.6616 20.3333 40 20.3333C45.3384 20.3333 49.6667 24.6616 49.6667 30C49.6667 35.3408 45.3384 39.6667 40 39.6667ZM55.4812 11.0413C53.5575 11.0413 51.9988 12.6 51.9988 14.5212C51.9988 16.4425 53.5575 18.0013 55.4812 18.0013C57.4024 18.0013 58.9587 16.4425 58.9587 14.5212C58.9587 12.6 57.4024 11.0413 55.4812 11.0413Z" fill="#04384B"/>
</svg>
